[
    {
        "_id": "5c87b9c368540d354cdedda8",
        "macAddress": "50:f1:4a:c7:b9:54",
        "temp": "16",
        "battery": "35",
        "boardId": "5c85be1cf1b14d5dc4b4bc02",
        "createdAt": "2019-03-12T13:53:07.549Z",
        "updatedAt": "2019-03-12T13:53:07.549Z",
        "__v": 0
    },
    {
        "_id": "5c87b9c368540d354cdedda8",
        "macAddress": "50:f1:4a:c7:b9:54",
        "temp": "16",
        "battery": "35",
        "boardId": "5c85be1cf1b14d5dc4b4bc02",
        "createdAt": "2019-03-12T13:53:07.549Z",
        "updatedAt": "2019-03-12T13:53:07.549Z",
        "__v": 0
    },
    {
        "_id": "5c87b9c368540d354cdedda8",
        "macAddress": "50:f1:4a:c7:b9:54",
        "temp": "16",
        "battery": "35",
        "boardId": "5c85be1cf1b14d5dc4b4bc02",
        "createdAt": "2019-03-12T13:53:07.549Z",
        "updatedAt": "2019-03-12T13:53:07.549Z",
        "__v": 0
    },
    {
        "_id": "5c87b9c368540d354cdedda8",
        "macAddress": "50:f1:4a:c7:b9:54",
        "temp": "16",
        "battery": "35",
        "boardId": "5c85be1cf1b14d5dc4b4bc02",
        "createdAt": "2019-03-12T13:53:07.549Z",
        "updatedAt": "2019-03-12T13:53:07.549Z",
        "__v": 0
    },
    {
        "_id": "5c87b9c368540d354cdedda8",
        "macAddress": "50:f1:4a:c7:b9:54",
        "temp": "16",
        "battery": "35",
        "boardId": "5c85be1cf1b14d5dc4b4bc02",
        "createdAt": "2019-03-12T13:53:07.549Z",
        "updatedAt": "2019-03-12T13:53:07.549Z",
        "__v": 0
    },
    {
        "_id": "5c87b9c368540d354cdedda8",
        "macAddress": "50:f1:4a:c7:b9:54",
        "temp": "16",
        "battery": "35",
        "boardId": "5c85be1cf1b14d5dc4b4bc02",
        "createdAt": "2019-03-12T13:53:07.549Z",
        "updatedAt": "2019-03-12T13:53:07.549Z",
        "__v": 0
    },
    {
        "_id": "5c87b9c368540d354cdedda8",
        "macAddress": "50:f1:4a:c7:b9:54",
        "temp": "16",
        "battery": "35",
        "boardId": "5c85be1cf1b14d5dc4b4bc02",
        "createdAt": "2019-03-12T13:53:07.549Z",
        "updatedAt": "2019-03-12T13:53:07.549Z",
        "__v": 0
    }
]